<?xml version="1.0" encoding="utf-8"?>
<!-- Generator: Adobe Illustrator 24.1.2, SVG Export Plug-In . SVG Version: 6.00 Build 0)  -->
<svg version="1.1" id="Layer_1" xmlns="http://www.w3.org/2000/svg" xmlns:xlink="http://www.w3.org/1999/xlink" x="0px" y="0px"
	 viewBox="0 0 80 80" style="enable-background:new 0 0 80 80;" xml:space="preserve">
<style type="text/css">
	.st0{fill:url(#SVGID_1_);}
	.st1{fill:#FFFFFF;}
	.st2{fill:#262626;}
	.st3{fill:url(#Expand_Less_2_);}
	.st4{clip-path:url(#SVGID_4_);}
	.st5{clip-path:url(#SVGID_5_);}
	.st6{clip-path:url(#SVGID_16_);}
	.st7{clip-path:url(#SVGID_17_);}
	.st8{clip-path:url(#SVGID_28_);}
	.st9{clip-path:url(#SVGID_29_);}
	.st10{clip-path:url(#SVGID_38_);}
	.st11{clip-path:url(#SVGID_39_);}
	.st12{clip-path:url(#SVGID_50_);}
	.st13{clip-path:url(#SVGID_51_);}
	.st14{clip-path:url(#SVGID_62_);}
	.st15{clip-path:url(#SVGID_63_);}
	.st16{fill:#FF4F5B;}
	.st17{opacity:0.8;}
	.st18{opacity:0.4;}
	.st19{opacity:0.5;}
	.st20{fill:#FAFAFA;}
	.st21{fill:#39B54A;}
	.st22{fill:#0071BC;}
	.st23{fill:#3EA69B;}
	.st24{fill:#44C4A1;}
	.st25{fill:url(#SVGID_74_);}
	.st26{fill:#FF0000;}
	.st27{fill:none;stroke:#FFFFFF;stroke-width:12;stroke-miterlimit:10;}
	.st28{opacity:0.8;fill:#FFFFFF;}
	.st29{fill:#F2F2F2;}
	.st30{fill:url(#SVGID_75_);}
	.st31{fill:url(#SVGID_76_);}
	.st32{fill:url(#SVGID_77_);}
	.st33{fill:url(#SVGID_78_);}
	.st34{fill:url(#SVGID_79_);}
	.st35{fill:url(#SVGID_80_);}
	.st36{fill:url(#SVGID_81_);}
	.st37{fill:url(#SVGID_82_);}
	.st38{fill:url(#SVGID_83_);}
	.st39{fill:url(#SVGID_84_);}
	.st40{fill:url(#SVGID_85_);}
	.st41{fill:url(#SVGID_86_);}
	.st42{fill:url(#SVGID_87_);}
	.st43{fill:url(#SVGID_88_);}
	.st44{fill:url(#SVGID_89_);}
	.st45{fill:url(#SVGID_90_);}
	.st46{fill:url(#SVGID_91_);}
	.st47{fill:url(#SVGID_92_);}
</style>
<g>
	<path class="st1" d="M64.15,39.99L44.08,17.97v13.13h-4.27c-13.23,0-23.96,10.73-23.96,23.96v6.96l1.9-2.08
		c6.45-7.06,15.56-11.09,25.13-11.09h1.21V62L64.15,39.99z"/>
</g>
</svg>
