<?xml version="1.0" encoding="utf-8"?>
<!-- Generator: Adobe Illustrator 24.1.2, SVG Export Plug-In . SVG Version: 6.00 Build 0)  -->
<svg version="1.1" id="Layer_1" xmlns="http://www.w3.org/2000/svg" xmlns:xlink="http://www.w3.org/1999/xlink" x="0px" y="0px"
	 viewBox="0 0 120 120" style="enable-background:new 0 0 120 120;" xml:space="preserve">
<style type="text/css">
	.st0{fill:url(#SVGID_1_);}
	.st1{fill:#FFFFFF;}
	.st2{fill:#262626;}
	.st3{fill:url(#Expand_Less_2_);}
	.st4{clip-path:url(#SVGID_4_);}
	.st5{clip-path:url(#SVGID_5_);}
	.st6{clip-path:url(#SVGID_16_);}
	.st7{clip-path:url(#SVGID_17_);}
	.st8{clip-path:url(#SVGID_28_);}
	.st9{clip-path:url(#SVGID_29_);}
	.st10{clip-path:url(#SVGID_38_);}
	.st11{clip-path:url(#SVGID_39_);}
	.st12{clip-path:url(#SVGID_50_);}
	.st13{clip-path:url(#SVGID_51_);}
	.st14{clip-path:url(#SVGID_62_);}
	.st15{clip-path:url(#SVGID_63_);}
	.st16{fill:#FF4F5B;}
	.st17{opacity:0.8;}
	.st18{opacity:0.4;}
	.st19{opacity:0.5;}
	.st20{fill:#FAFAFA;}
	.st21{fill:#39B54A;}
	.st22{fill:#0071BC;}
	.st23{fill:#3EA69B;}
	.st24{fill:#44C4A1;}
	.st25{fill:url(#SVGID_74_);}
	.st26{fill:#FF0000;}
	.st27{fill:none;stroke:#FFFFFF;stroke-width:12;stroke-miterlimit:10;}
	.st28{opacity:0.8;fill:#FFFFFF;}
	.st29{fill:#F2F2F2;}
	.st30{fill:url(#SVGID_75_);}
	.st31{fill:url(#SVGID_76_);}
	.st32{fill:url(#SVGID_77_);}
	.st33{fill:url(#SVGID_78_);}
	.st34{fill:url(#SVGID_79_);}
	.st35{fill:url(#SVGID_80_);}
	.st36{fill:url(#SVGID_81_);}
	.st37{fill:url(#SVGID_82_);}
	.st38{fill:url(#SVGID_83_);}
	.st39{fill:url(#SVGID_84_);}
	.st40{fill:url(#SVGID_85_);}
	.st41{fill:url(#SVGID_86_);}
	.st42{fill:url(#SVGID_87_);}
	.st43{fill:url(#SVGID_88_);}
	.st44{fill:url(#SVGID_89_);}
	.st45{fill:url(#SVGID_90_);}
	.st46{fill:url(#SVGID_91_);}
	.st47{fill:url(#SVGID_92_);}
</style>
<g>
	<circle class="st1" cx="60" cy="60" r="53"/>
	<g>
		<linearGradient id="Expand_Less_2_" gradientUnits="userSpaceOnUse" x1="43.042" y1="60" x2="76.958" y2="60">
			<stop  offset="0" style="stop-color:#BC1E32"/>
			<stop  offset="1" style="stop-color:#ED4A59"/>
		</linearGradient>
		<path id="Expand_Less_1_" class="st3" d="M76.06,62.19c1.2-1.2,1.2-3.21,0-4.41l-27.7-27.76c-1.22-1.22-3.19-1.21-4.4,0
			c-1.22,1.22-1.21,3.19,0,4.41l25.5,25.56L43.97,85.56c-1.22,1.22-1.21,3.19,0,4.41c1.22,1.22,3.19,1.21,4.4,0L76.06,62.19z"/>
	</g>
</g>
</svg>
