<?xml version="1.0" encoding="utf-8"?>
<!-- Generator: Adobe Illustrator 24.1.2, SVG Export Plug-In . SVG Version: 6.00 Build 0)  -->
<svg version="1.1" id="Layer_1" xmlns="http://www.w3.org/2000/svg" xmlns:xlink="http://www.w3.org/1999/xlink" x="0px" y="0px"
	 viewBox="0 0 80 80" style="enable-background:new 0 0 80 80;" xml:space="preserve">
<style type="text/css">
	.st0{fill:url(#SVGID_1_);}
	.st1{fill:#FFFFFF;}
	.st2{fill:#262626;}
	.st3{fill:url(#Expand_Less_2_);}
	.st4{clip-path:url(#SVGID_4_);}
	.st5{clip-path:url(#SVGID_5_);}
	.st6{clip-path:url(#SVGID_16_);}
	.st7{clip-path:url(#SVGID_17_);}
	.st8{clip-path:url(#SVGID_28_);}
	.st9{clip-path:url(#SVGID_29_);}
	.st10{clip-path:url(#SVGID_38_);}
	.st11{clip-path:url(#SVGID_39_);}
	.st12{clip-path:url(#SVGID_50_);}
	.st13{clip-path:url(#SVGID_51_);}
	.st14{clip-path:url(#SVGID_62_);}
	.st15{clip-path:url(#SVGID_63_);}
	.st16{fill:#FF4F5B;}
	.st17{opacity:0.8;}
	.st18{opacity:0.4;}
	.st19{opacity:0.5;}
	.st20{fill:#FAFAFA;}
	.st21{fill:#39B54A;}
	.st22{fill:#0071BC;}
	.st23{fill:#3EA69B;}
	.st24{fill:#44C4A1;}
	.st25{fill:url(#SVGID_74_);}
	.st26{fill:#FF0000;}
	.st27{fill:none;stroke:#FFFFFF;stroke-width:12;stroke-miterlimit:10;}
	.st28{opacity:0.8;fill:#FFFFFF;}
	.st29{fill:#F2F2F2;}
	.st30{fill:url(#SVGID_75_);}
	.st31{fill:url(#SVGID_76_);}
	.st32{fill:url(#SVGID_77_);}
	.st33{fill:url(#SVGID_78_);}
	.st34{fill:url(#SVGID_79_);}
	.st35{fill:url(#SVGID_80_);}
	.st36{fill:url(#SVGID_81_);}
	.st37{fill:url(#SVGID_82_);}
	.st38{fill:url(#SVGID_83_);}
	.st39{fill:url(#SVGID_84_);}
	.st40{fill:url(#SVGID_85_);}
	.st41{fill:url(#SVGID_86_);}
	.st42{fill:url(#SVGID_87_);}
	.st43{fill:url(#SVGID_88_);}
	.st44{fill:url(#SVGID_89_);}
	.st45{fill:url(#SVGID_90_);}
	.st46{fill:url(#SVGID_91_);}
	.st47{fill:url(#SVGID_92_);}
</style>
<g>
	<g>
		<path class="st2" d="M45.88,24.56c-1.15-2.97-2.59-5.48-4.24-7.4C41.1,17.12,40.55,17.1,40,17.1c-0.55,0-1.1,0.02-1.64,0.06
			c-1.66,1.92-3.1,4.42-4.24,7.4c-0.37,0.96-0.7,1.96-1,2.98h13.76C46.58,26.51,46.25,25.52,45.88,24.56z"/>
		<path class="st2" d="M32.45,49.78h15.11c0.58-2.68,0.91-5.52,0.99-8.44H31.45C31.53,44.25,31.87,47.09,32.45,49.78z"/>
		<path class="st2" d="M47.55,30.22H32.45c-0.58,2.68-0.91,5.52-0.99,8.44h17.09C48.47,35.75,48.13,32.91,47.55,30.22z"/>
		<path class="st2" d="M34.12,55.44c1.15,2.97,2.59,5.48,4.24,7.4c0.54,0.04,1.09,0.06,1.64,0.06c0.55,0,1.1-0.02,1.64-0.06
			c1.66-1.92,3.1-4.42,4.24-7.4c0.37-0.96,0.7-1.96,1-2.98H33.12C33.42,53.49,33.75,54.48,34.12,55.44z"/>
		<path class="st2" d="M50.29,30.22c0.54,2.68,0.86,5.52,0.94,8.44h11.63c-0.17-2.96-0.9-5.81-2.14-8.44c-0.01,0-0.03,0-0.04,0
			H50.29z"/>
		<path class="st2" d="M29.71,49.78c-0.54-2.68-0.86-5.52-0.94-8.44H17.14c0.17,2.96,0.9,5.81,2.14,8.44c0.01,0,0.03,0,0.04,0H29.71
			z"/>
		<path class="st2" d="M49.66,52.46c-1,3.72-2.44,7.06-4.24,9.79c4.04-0.98,7.75-3.05,10.77-6.06c1.15-1.15,2.16-2.4,3.03-3.73
			H49.66z"/>
		<path class="st2" d="M30.34,27.54c1-3.72,2.44-7.06,4.24-9.79c-4.04,0.98-7.75,3.05-10.77,6.06c-1.15,1.15-2.16,2.4-3.03,3.73
			H30.34z"/>
		<path class="st2" d="M30.34,52.46h-9.56c0.87,1.33,1.88,2.58,3.03,3.73c3.02,3.02,6.72,5.08,10.77,6.06
			C32.78,59.52,31.34,56.19,30.34,52.46z"/>
		<path class="st2" d="M49.66,27.54h9.56c-0.87-1.33-1.88-2.58-3.03-3.73c-3.02-3.02-6.72-5.08-10.77-6.06
			C47.22,20.48,48.66,23.81,49.66,27.54z"/>
		<path class="st2" d="M51.23,41.34c-0.08,2.92-0.4,5.76-0.94,8.44h10.39c0.01,0,0.03,0,0.04,0c1.24-2.62,1.97-5.48,2.14-8.44H51.23
			z"/>
		<path class="st2" d="M28.77,38.66c0.08-2.92,0.4-5.76,0.94-8.44H19.32c-0.01,0-0.03,0-0.04,0c-1.24,2.62-1.97,5.48-2.14,8.44
			H28.77z"/>
	</g>
</g>
</svg>
