<?xml version="1.0" encoding="utf-8"?>
<!-- Generator: Adobe Illustrator 24.1.2, SVG Export Plug-In . SVG Version: 6.00 Build 0)  -->
<svg version="1.1" id="Layer_1" xmlns="http://www.w3.org/2000/svg" xmlns:xlink="http://www.w3.org/1999/xlink" x="0px" y="0px"
	 viewBox="0 0 80 80" style="enable-background:new 0 0 80 80;" xml:space="preserve">
<style type="text/css">
	.st0{fill:url(#SVGID_1_);}
	.st1{fill:#FFFFFF;}
	.st2{fill:#262626;}
	.st3{fill:url(#Expand_Less_2_);}
	.st4{clip-path:url(#SVGID_4_);}
	.st5{clip-path:url(#SVGID_5_);}
	.st6{clip-path:url(#SVGID_16_);}
	.st7{clip-path:url(#SVGID_17_);}
	.st8{clip-path:url(#SVGID_28_);}
	.st9{clip-path:url(#SVGID_29_);}
	.st10{clip-path:url(#SVGID_38_);}
	.st11{clip-path:url(#SVGID_39_);}
	.st12{clip-path:url(#SVGID_50_);}
	.st13{clip-path:url(#SVGID_51_);}
	.st14{clip-path:url(#SVGID_62_);}
	.st15{clip-path:url(#SVGID_63_);}
	.st16{fill:#FF4F5B;}
	.st17{opacity:0.8;}
	.st18{opacity:0.4;}
	.st19{opacity:0.5;}
	.st20{fill:#FAFAFA;}
	.st21{fill:#39B54A;}
	.st22{fill:#0071BC;}
	.st23{fill:#3EA69B;}
	.st24{fill:#44C4A1;}
	.st25{fill:url(#SVGID_74_);}
	.st26{fill:#FF0000;}
	.st27{fill:none;stroke:#FFFFFF;stroke-width:12;stroke-miterlimit:10;}
	.st28{opacity:0.8;fill:#FFFFFF;}
	.st29{fill:#F2F2F2;}
	.st30{fill:url(#SVGID_75_);}
	.st31{fill:url(#SVGID_76_);}
	.st32{fill:url(#SVGID_77_);}
	.st33{fill:url(#SVGID_78_);}
	.st34{fill:url(#SVGID_79_);}
	.st35{fill:url(#SVGID_80_);}
	.st36{fill:url(#SVGID_81_);}
	.st37{fill:url(#SVGID_82_);}
	.st38{fill:url(#SVGID_83_);}
	.st39{fill:url(#SVGID_84_);}
	.st40{fill:url(#SVGID_85_);}
	.st41{fill:url(#SVGID_86_);}
	.st42{fill:url(#SVGID_87_);}
	.st43{fill:url(#SVGID_88_);}
	.st44{fill:url(#SVGID_89_);}
	.st45{fill:url(#SVGID_90_);}
	.st46{fill:url(#SVGID_91_);}
	.st47{fill:url(#SVGID_92_);}
</style>
<g class="st17">
	<path class="st1" d="M49.58,44.01c0,5.29-4.3,9.58-9.58,9.58s-9.58-4.3-9.58-9.58s4.3-9.58,9.58-9.58S49.58,38.73,49.58,44.01z
		 M69.71,30.4v27.22c0,3.63-2.94,6.57-6.57,6.57H16.86c-3.63,0-6.57-2.94-6.57-6.57V30.4c0-3.63,2.94-6.57,6.57-6.57h8.08v-2.27
		c0-3.18,2.57-5.75,5.75-5.75h18.62c3.18,0,5.75,2.57,5.75,5.75v2.27h8.08C66.77,23.83,69.71,26.77,69.71,30.4z M54.51,44.01
		c0-8-6.51-14.51-14.51-14.51c-8,0-14.51,6.51-14.51,14.51S32,58.52,40,58.52C48,58.52,54.51,52.01,54.51,44.01z"/>
</g>
</svg>
